uuid|mobilenumber|errorcode|errorname
6cde45ea-a105-4e50-baf5-1cc1240ce93e|254733456160|"0100019"|PAYEE_DAILY_CUMULATIVE_AMT_REACHED 
f9150f36-2689-4d1b-9ad0-5ca724b47aa7|254789142444|"0100007"|PAYEE_DAILY_CUMULATIVE_COUNT_REACHED 
2c7fd25b-f011-40fe-8c50-11e247aae3f4|254738668988|"0100023"|PAYEE_MONTHLY_CUMULATIVE_AMT_REACHED 
04d4531d-4901-43f2-9dfb-f5d25fa98d45|254735290374|"0100011"|PAYEE_MONTHLY_CUMULATIVE_COUNT_REACHED 
ed08890a-9aef-46be-aa19-cf097418d981|254735162548|"60030"|PAYEE_MAXIMUM_BALANCE_EXCEEDED
cc717f13-d7e5-4d63-9333-c72f58c15b83|254789536154|"0100018"|PAYER_DAILY_CUMULATIVE_AMT_REACHED 
57e40fdd-90c8-474a-88b4-2ace0fb044a5|254731654852|"0100006"|PAYER_DAILY_CUMULATIVE_COUNT_REACHED 
222a3747-bec5-43da-b4fe-ede2345093cc|254730357159|"0100022"|PAYER_MONTHLY_CUMULATIVE_AMT_REACHED 
098ef9e0-888a-4794-8ee5-4cf0c8c9dcd4|254736159874|"0100010"|PAYER_MONTHLY_CUMULATIVE_COUNT_REACHED 
c8e7852e-5263-4391-a966-ed7f672768e0|254733019854|"0100004"|PAYER_REQUESTED_AMT_GREATER_PER_TXN_AMT 
7386fb9d-7cb9-463c-a2ff-5fa6b7fd80aa|254738495367|"0100002"|USER_NOT_ALLOWED_AS_PAYER 
38a3193f-5e6f-4890-952c-cd30eef2213c|254733165749|"00051"|INVALID_MSISDN_LENGTH
b46d65c6-6b0c-42cd-aa7f-92be5f3beba7|254736541452|"00126"|RECEIVER_PARTY_NOT_ACTIVE
4b0b624d-879c-4a43-859d-b88eb6678a72|254788164949|"00067"|SENDER_PARTY_NOT_ACTIVE
f4eb2239-32cf-4078-a599-0d0a6350da33|254731987789|"00666"|PAYEE_NOT_FOUND 
7851cbb9-d74d-494d-af96-51bc8b81138a|254733000111|"00667"|PAYER_NOT_FOUND 
44f11817-6edb-416e-913d-858b405f3301|254736800974|"01029"|AUTHENTICATION_FAILED
4ce434f6-39f3-4521-9c1d-c802e517520b|254739856987|"00032"|UNKNOWN_ERROR
de7210b5-46c3-434e-923a-3718b3746225|254789600354|"00028"|AMOUNT_NOT_NUMERIC
e51f096d-ab1e-47c5-bc96-506a9a4f26ba|254731987100|"00027"|AMOUNT_FIELD_EMPTY
e29cf4ca-f54f-4e59-a6cf-f7ae7481abcc|254736150300|"00317"|SENDER_PARTY_BARRED
9d1fdf10-2536-4d10-8f34-3f5d47ac6433|254733159840|"S000"|SUCCESS
ca4e1813-2716-4604-b779-9804b5eab8d9|254731520630|"60019"|INSUFFICIENT_FUNDS
6a1fdf10-2536-4d10-8f34-3f5d47ac6454|254735290375|"S001"|CREDIT_INPROGRESS
